[
  {
    "id": 1,
    "name": "Дневной забег",
    "time": "00:18:01",
    "username": "Alex",
    "distance": 18.76,
    "elevation": 1202,
    "pace": "05:01",
    "dateDone": "08/09/2011 01:45",
    "erun": 20,
    "status": 1
  },
  {
    "id": 2,
    "name": "Дневной забег",
    "time": "00:18:01",
    "username": "Alex",
    "distance": 18.76,
    "elevation": 1202,
    "pace": "05:01",
    "dateDone": "08/09/2011 01:45",
    "erun": 28,
    "status": 3
  },
  {
    "id": 3,
    "name": "Дневной забег",
    "time": "00:18:01",
    "username": "Alex",
    "distance": 1.76,
    "elevation": 102,
    "pace": "05:05",
    "dateDone": "07/09/2011 01:45",
    "erun": 50,
    "status": 0
  },
  {
    "id": 4,
    "name": "Дневной забег",
    "time": "00:17:01",
    "username": "Alex",
    "distance": 17.76,
    "elevation": 202,
    "pace": "05:00",
    "dateDone": "08/08/2011 01:45",
    "erun": 10,
    "status": 2
  }
]
