[
  {
    "id": 1,
    "name": "Alex",
    "distance": 1,
    "unlockAtLevel": 2,
    "xpGained": 2,
    "goldGained": 3,
    "typeEgg": "Free"
  },
  {
    "id": 2,
    "name": "Alex",
    "distance": 1,
    "unlockAtLevel": 2,
    "xpGained": 2,
    "goldGained": 3,
    "typeEgg": "Normal"
  }
]
